%YAML 1.1
%TAG !u! tag:unity3d.com,2011:
--- !u!1045 &1
EditorBuildSettings:
  m_ObjectHideFlags: 0
  serializedVersion: 2
  m_Scenes:
  - enabled: 1
    path: Assets/Scenes/LobbyScene.unity
    guid: 3adb158719a2fde47b23f83f67d010c9
  - enabled: 1
    path: Assets/Scenes/SurvivalScene.unity
    guid: 2471e9e86901079438219b98c5ec418d
  m_configObjects: {}
